tests/22a.vcd
$date
	Thu Dec 29 21:27:00 2022
$end
$version
	Icarus Verilog
$end
$timescale
	1ns
$end
$scope module test $end
$var wire 1 ! rxErr_2 $end
$var wire 1 " rxDone_2 $end
$var wire 8 # rxByte_2 [7:0] $end
$var wire 1 $ rxBusy_2 $end
$var reg 1 % clk $end
$var reg 1 & en_1 $end
$var reg 1 ' rx $end
$var reg 8 ( txByte_1 [7:0] $end
$scope module uart $end
$var wire 1 % clk $end
$var wire 8 ) in [7:0] $end
$var wire 1 ' rx $end
$var wire 1 & rxEn $end
$var wire 1 * txEn $end
$var wire 1 + txStart $end
$var wire 1 , txDone $end
$var wire 1 - txClk $end
$var wire 1 . txBusy $end
$var wire 1 / tx $end
$var wire 1 ! rxErr $end
$var wire 1 " rxDone $end
$var wire 1 0 rxClk $end
$var wire 1 $ rxBusy $end
$var wire 8 1 out [7:0] $end
$scope module generatorInst $end
$var wire 1 % clk $end
$var reg 1 0 rxClk $end
$var reg 6 2 rx_counter [5:0] $end
$var reg 1 - txClk $end
$var reg 10 3 tx_counter [9:0] $end
$upscope $end
$scope module rxInst $end
$var wire 1 0 clk $end
$var wire 1 & en $end
$var wire 1 ' in $end
$var wire 1 4 in_sample $end
$var wire 4 5 in_prior_hold_reg [3:0] $end
$var wire 4 6 in_current_hold_reg [3:0] $end
$var reg 3 7 bit_index [2:0] $end
$var reg 1 $ busy $end
$var reg 1 " done $end
$var reg 1 ! err $end
$var reg 5 8 in_hold_reg [4:0] $end
$var reg 2 9 in_reg [1:0] $end
$var reg 8 : out [7:0] $end
$var reg 5 ; out_hold_count [4:0] $end
$var reg 8 < received_data [7:0] $end
$var reg 4 = sample_count [3:0] $end
$var reg 3 > state [2:0] $end
$upscope $end
$scope module txInst $end
$var wire 1 - clk $end
$var wire 1 * en $end
$var wire 8 ? in [7:0] $end
$var wire 1 + start $end
$var reg 3 @ bit_index [2:0] $end
$var reg 1 . busy $end
$var reg 1 , done $end
$var reg 8 A in_data [7:0] $end
$var reg 1 / out $end
$var reg 3 B state [2:0] $end
$upscope $end
$upscope $end
$upscope $end
$enddefinitions $end
#0
$dumpvars
b0 B
b0 A
b0 @
bz ?
b0 >
b0 =
b0 <
b0 ;
bx :
b0 9
b0 8
b0 7
b0 6
b0 5
04
b0 3
b0 2
bx 1
00
x/
x.
0-
x,
z+
z*
bz )
bx (
x'
x&
0%
x$
bx #
x"
x!
$end
#42
b1 3
b1 2
1%
#84
0%
#126
b10 3
b10 2
1%
#168
0%
#210
b11 3
b11 2
1%
#252
0%
#294
b100 3
b100 2
1%
#336
0%
#378
b101 3
b101 2
1%
#420
0%
#462
b110 3
b110 2
1%
#504
0%
#546
b111 3
b111 2
1%
#588
0%
#630
b1000 3
b1000 2
1%
#672
0%
#714
b1001 3
b1001 2
1%
#756
0%
#798
b1010 3
b1010 2
1%
#840
0%
#882
b1011 3
b1011 2
1%
#924
0%
#966
b1100 3
b1100 2
1%
#1008
0%
#1050
b1101 3
b1101 2
1%
#1092
0%
#1134
b1110 3
b1110 2
1%
#1176
0%
#1218
b1111 3
b1111 2
1%
#1260
0%
#1302
b10000 3
b10000 2
1%
#1344
0%
#1386
b10001 3
b10001 2
1%
#1428
0%
#1470
b10010 3
b10010 2
1%
#1512
0%
#1554
b10011 3
b10011 2
1%
#1596
0%
#1638
b10100 3
b10100 2
1%
#1680
0%
#1722
b10101 3
b10101 2
1%
#1764
0%
#1806
b10110 3
b10110 2
1%
#1848
0%
#1890
b10111 3
b10111 2
1%
#1932
0%
#1974
b11000 3
b11000 2
1%
#2016
0%
#2058
b11001 3
b11001 2
1%
#2100
0%
#2142
b11010 3
b11010 2
1%
#2184
0%
#2226
b11011 3
b11011 2
1%
#2268
0%
#2310
b11100 3
b11100 2
1%
#2352
0%
#2394
b11101 3
b11101 2
1%
#2436
0%
#2478
b11110 3
b11110 2
1%
#2520
0%
#2562
b11111 3
b11111 2
1%
#2604
0%
#2646
b100000 3
b100000 2
1%
#2688
0%
#2730
b100001 3
b100001 2
1%
#2772
0%
#2814
b100010 3
b100010 2
1%
#2856
0%
#2898
b100011 3
b100011 2
1%
#2940
0%
#2982
b100100 3
b100100 2
1%
#3024
0%
#3066
b100101 3
b100101 2
1%
#3108
0%
#3150
b100110 3
b100110 2
1%
#3192
0%
#3234
b100111 3
b100111 2
1%
#3276
0%
#3318
b0x 9
b0 #
b0 1
b0 :
0!
0"
0$
b101000 3
10
b0 2
1%
#3360
0%
#3402
b101001 3
b1 2
1%
#3444
0%
#3486
b101010 3
b10 2
1%
#3528
0%
#3570
b101011 3
b11 2
1%
#3612
0%
#3654
b101100 3
b100 2
1%
#3696
0%
#3738
b101101 3
b101 2
1%
#3780
0%
#3822
b101110 3
b110 2
1%
#3864
0%
#3906
b101111 3
b111 2
1%
#3948
0%
#3990
b110000 3
b1000 2
1%
#4032
0%
#4074
b110001 3
b1001 2
1%
#4116
0%
#4158
b110010 3
b1010 2
1%
#4200
0%
#4242
b110011 3
b1011 2
1%
#4284
0%
#4326
b110100 3
b1100 2
1%
#4368
0%
#4410
b110101 3
b1101 2
1%
#4452
0%
#4494
b110110 3
b1110 2
1%
#4536
0%
#4578
b110111 3
b1111 2
1%
#4620
0%
#4662
b111000 3
b10000 2
1%
#4704
0%
#4746
b111001 3
b10001 2
1%
#4788
0%
#4830
b111010 3
b10010 2
1%
#4872
0%
#4914
b111011 3
b10011 2
1%
#4956
0%
#4998
b111100 3
b10100 2
1%
#5040
0%
#5082
b111101 3
b10101 2
1%
#5124
0%
#5166
b111110 3
b10110 2
1%
#5208
0%
#5250
b111111 3
b10111 2
1%
#5292
0%
#5334
b1000000 3
b11000 2
1%
#5376
0%
#5418
b1000001 3
b11001 2
1%
#5460
0%
#5502
b1000010 3
b11010 2
1%
#5544
0%
#5586
b1000011 3
b11011 2
1%
#5628
0%
#5670
b1000100 3
b11100 2
1%
#5712
0%
#5754
b1000101 3
b11101 2
1%
#5796
0%
#5838
b1000110 3
b11110 2
1%
#5880
0%
#5922
b1000111 3
b11111 2
1%
#5964
0%
#6006
b1001000 3
b100000 2
1%
#6048
0%
#6090
b1001001 3
b100001 2
1%
#6132
0%
#6174
b1001010 3
b100010 2
1%
#6216
0%
#6258
b1001011 3
b100011 2
1%
#6300
0%
#6342
b1001100 3
b100100 2
1%
#6384
0%
#6426
b1001101 3
b100101 2
1%
#6468
0%
#6510
b1001110 3
b100110 2
1%
#6552
0%
#6594
b1001111 3
b100111 2
1%
#6636
0%
#6678
b1010000 3
00
b0 2
1%
#6720
0%
#6762
b1010001 3
b1 2
1%
#6804
0%
#6846
b1010010 3
b10 2
1%
#6888
0%
#6930
b1010011 3
b11 2
1%
#6972
0%
#7014
b1010100 3
b100 2
1%
#7056
0%
#7098
b1010101 3
b101 2
1%
#7140
0%
#7182
b1010110 3
b110 2
1%
#7224
0%
#7266
b1010111 3
b111 2
1%
#7308
0%
#7350
b1011000 3
b1000 2
1%
#7392
0%
#7434
b1011001 3
b1001 2
1%
#7476
0%
#7518
b1011010 3
b1010 2
1%
#7560
0%
#7602
b1011011 3
b1011 2
1%
#7644
0%
#7686
b1011100 3
b1100 2
1%
#7728
0%
#7770
b1011101 3
b1101 2
1%
#7812
0%
#7854
b1011110 3
b1110 2
1%
#7896
0%
#7938
b1011111 3
b1111 2
1%
#7980
0%
#8022
b1100000 3
b10000 2
1%
#8064
0%
#8106
b1100001 3
b10001 2
1%
#8148
0%
#8190
b1100010 3
b10010 2
1%
#8232
0%
#8274
b1100011 3
b10011 2
1%
#8316
0%
#8358
b1100100 3
b10100 2
1%
#8400
0%
#8442
b1100101 3
b10101 2
1%
#8484
0%
#8526
b1100110 3
b10110 2
1%
#8568
0%
#8610
b1100111 3
b10111 2
1%
#8652
0%
#8694
b1101000 3
b11000 2
1%
#8736
0%
#8778
b1101001 3
b11001 2
1%
#8820
0%
#8862
b1101010 3
b11010 2
1%
#8904
0%
#8946
b1101011 3
b11011 2
1%
#8988
0%
#9030
b1101100 3
b11100 2
1%
#9072
0%
#9114
b1101101 3
b11101 2
1%
#9156
0%
#9198
b1101110 3
b11110 2
1%
#9240
0%
#9282
b1101111 3
b11111 2
1%
#9324
0%
#9366
b1110000 3
b100000 2
1%
#9408
0%
#9450
b1110001 3
b100001 2
1%
#9492
0%
#9534
b1110010 3
b100010 2
1%
#9576
0%
#9618
b1110011 3
b100011 2
1%
#9660
0%
#9702
b1110100 3
b100100 2
1%
#9744
0%
#9786
b1110101 3
b100101 2
1%
#9828
0%
#9870
b1110110 3
b100110 2
1%
#9912
0%
#9954
b1110111 3
b100111 2
1%
#9996
0%
#10038
b0x 6
x4
b0x 8
bx 9
b1111000 3
10
b0 2
1%
#10080
0%
#10122
b1111001 3
b1 2
1%
#10164
0%
#10206
b1111010 3
b10 2
1%
#10248
0%
#10290
b1111011 3
b11 2
1%
#10332
0%
#10374
b1111100 3
b100 2
1%
#10416
0%
#10458
b1111101 3
b101 2
1%
#10500
0%
#10542
b1111110 3
b110 2
1%
#10584
0%
#10626
b1111111 3
b111 2
1%
#10668
0%
#10710
b10000000 3
b1000 2
1%
#10752
0%
#10794
b10000001 3
b1001 2
1%
#10836
0%
#10878
b10000010 3
b1010 2
1%
#10920
0%
#10962
b10000011 3
b1011 2
1%
#11004
0%
#11046
b10000100 3
b1100 2
1%
#11088
0%
#11130
b10000101 3
b1101 2
1%
#11172
0%
#11214
b10000110 3
b1110 2
1%
#11256
0%
#11298
b10000111 3
b1111 2
1%
#11340
0%
#11382
b10001000 3
b10000 2
1%
#11424
0%
#11466
b10001001 3
b10001 2
1%
#11508
0%
#11550
b10001010 3
b10010 2
1%
#11592
0%
#11634
b10001011 3
b10011 2
1%
#11676
0%
#11718
b10001100 3
b10100 2
1%
#11760
0%
#11802
b10001101 3
b10101 2
1%
#11844
0%
#11886
b10001110 3
b10110 2
1%
#11928
0%
#11970
b10001111 3
b10111 2
1%
#12012
0%
#12054
b10010000 3
b11000 2
1%
#12096
0%
#12138
b10010001 3
b11001 2
1%
#12180
0%
#12222
b10010010 3
b11010 2
1%
#12264
0%
#12306
b10010011 3
b11011 2
1%
#12348
0%
#12390
b10010100 3
b11100 2
1%
#12432
0%
#12474
b10010101 3
b11101 2
1%
#12516
0%
#12558
b10010110 3
b11110 2
1%
#12600
0%
#12642
b10010111 3
b11111 2
1%
#12684
0%
#12726
b10011000 3
b100000 2
1%
#12768
0%
#12810
b10011001 3
b100001 2
1%
#12852
0%
#12894
b10011010 3
b100010 2
1%
#12936
0%
#12978
b10011011 3
b100011 2
1%
#13020
0%
#13062
b10011100 3
b100100 2
1%
#13104
0%
#13146
b10011101 3
b100101 2
1%
#13188
0%
#13230
b10011110 3
b100110 2
1%
#13272
0%
#13314
b10011111 3
b100111 2
1%
#13356
0%
#13398
b10100000 3
00
b0 2
1%
#13440
0%
#13482
b10100001 3
b1 2
1%
#13524
0%
#13566
b10100010 3
b10 2
1%
#13608
0%
#13650
b10100011 3
b11 2
1%
#13692
0%
#13734
b10100100 3
b100 2
1%
#13776
0%
#13818
b10100101 3
b101 2
1%
#13860
0%
#13902
b10100110 3
b110 2
1%
#13944
0%
#13986
b10100111 3
b111 2
1%
#14028
0%
#14070
b10101000 3
b1000 2
1%
#14112
0%
#14154
b10101001 3
b1001 2
1%
#14196
0%
#14238
b10101010 3
b1010 2
1%
#14280
0%
#14322
b10101011 3
b1011 2
1%
#14364
0%
#14406
b10101100 3
b1100 2
1%
#14448
0%
#14490
b10101101 3
b1101 2
1%
#14532
0%
#14574
b10101110 3
b1110 2
1%
#14616
0%
#14658
b10101111 3
b1111 2
1%
#14700
0%
#14742
b10110000 3
b10000 2
1%
#14784
0%
#14826
b10110001 3
b10001 2
1%
#14868
0%
#14910
b10110010 3
b10010 2
1%
#14952
0%
#14994
b10110011 3
b10011 2
1%
#15036
0%
#15078
b10110100 3
b10100 2
1%
#15120
0%
#15162
b10110101 3
b10101 2
1%
#15204
0%
#15246
b10110110 3
b10110 2
1%
#15288
0%
#15330
b10110111 3
b10111 2
1%
#15372
0%
#15414
b10111000 3
b11000 2
1%
#15456
0%
#15498
b10111001 3
b11001 2
1%
#15540
0%
#15582
b10111010 3
b11010 2
1%
#15624
0%
#15666
b10111011 3
b11011 2
1%
#15708
0%
#15750
b10111100 3
b11100 2
1%
#15792
0%
#15834
b10111101 3
b11101 2
1%
#15876
0%
#15918
b10111110 3
b11110 2
1%
#15960
0%
#16002
b10111111 3
b11111 2
1%
#16044
0%
#16086
b11000000 3
b100000 2
1%
#16128
0%
#16170
b11000001 3
b100001 2
1%
#16212
0%
#16254
b11000010 3
b100010 2
1%
#16296
0%
#16338
b11000011 3
b100011 2
1%
#16380
0%
#16422
b11000100 3
b100100 2
1%
#16464
0%
#16506
b11000101 3
b100101 2
1%
#16548
0%
#16590
b11000110 3
b100110 2
1%
#16632
0%
#16674
b11000111 3
b100111 2
1%
#16716
0%
#16758
b0x 5
b0xx 6
b0xx 8
b11001000 3
10
b0 2
1%
#16800
0%
#16842
b11001001 3
b1 2
1%
#16884
0%
#16926
b11001010 3
b10 2
1%
#16968
0%
#17010
b11001011 3
b11 2
1%
#17052
0%
#17094
b11001100 3
b100 2
1%
#17136
0%
#17178
b11001101 3
b101 2
1%
#17220
0%
#17262
b11001110 3
b110 2
1%
#17304
0%
#17346
b11001111 3
b111 2
1%
#17388
0%
#17430
b11010000 3
b1000 2
1%
#17472
0%
#17514
b11010001 3
b1001 2
1%
#17556
0%
#17598
b11010010 3
b1010 2
1%
#17640
0%
#17682
b11010011 3
b1011 2
1%
#17724
0%
#17766
b11010100 3
b1100 2
1%
#17808
0%
#17850
b11010101 3
b1101 2
1%
#17892
0%
#17934
b11010110 3
b1110 2
1%
#17976
0%
#18018
b11010111 3
b1111 2
1%
#18060
0%
#18102
b11011000 3
b10000 2
1%
#18144
0%
#18186
b11011001 3
b10001 2
1%
#18228
0%
#18270
b11011010 3
b10010 2
1%
#18312
0%
#18354
b11011011 3
b10011 2
1%
#18396
0%
#18438
b11011100 3
b10100 2
1%
#18480
0%
#18522
b11011101 3
b10101 2
1%
#18564
0%
#18606
b11011110 3
b10110 2
1%
#18648
0%
#18690
b11011111 3
b10111 2
1%
#18732
0%
#18774
b11100000 3
b11000 2
1%
#18816
0%
#18858
b11100001 3
b11001 2
1%
#18900
0%
#18942
b11100010 3
b11010 2
1%
#18984
0%
#19026
b11100011 3
b11011 2
1%
#19068
0%
#19110
b11100100 3
b11100 2
1%
#19152
0%
#19194
b11100101 3
b11101 2
1%
#19236
0%
#19278
b11100110 3
b11110 2
1%
#19320
0%
#19362
b11100111 3
b11111 2
1%
#19404
0%
#19446
b11101000 3
b100000 2
1%
#19488
0%
#19530
b11101001 3
b100001 2
1%
#19572
0%
#19614
b11101010 3
b100010 2
1%
#19656
0%
#19698
b11101011 3
b100011 2
1%
#19740
0%
#19782
b11101100 3
b100100 2
1%
#19824
0%
#19866
b11101101 3
b100101 2
1%
#19908
0%
#19950
b11101110 3
b100110 2
1%
#19992
0%
#20034
b11101111 3
b100111 2
1%
#20076
0%
#20118
b11110000 3
00
b0 2
1%
#20160
0%
#20202
b11110001 3
b1 2
1%
#20244
0%
#20286
b11110010 3
b10 2
1%
#20328
0%
#20370
b11110011 3
b11 2
1%
#20412
0%
#20454
b11110100 3
b100 2
1%
#20496
0%
#20538
b11110101 3
b101 2
1%
#20580
0%
#20622
b11110110 3
b110 2
1%
#20664
0%
#20706
b11110111 3
b111 2
1%
#20748
0%
#20790
b11111000 3
b1000 2
1%
#20832
0%
#20874
b11111001 3
b1001 2
1%
#20916
0%
#20958
b11111010 3
b1010 2
1%
#21000
0%
#21042
b11111011 3
b1011 2
1%
#21084
0%
#21126
b11111100 3
b1100 2
1%
#21168
0%
#21210
b11111101 3
b1101 2
1%
#21252
0%
#21294
b11111110 3
b1110 2
1%
#21336
0%
#21378
b11111111 3
b1111 2
1%
#21420
0%
#21462
b100000000 3
b10000 2
1%
#21504
0%
#21546
b100000001 3
b10001 2
1%
#21588
0%
#21630
b100000010 3
b10010 2
1%
#21672
0%
#21714
b100000011 3
b10011 2
1%
#21756
0%
#21798
b100000100 3
b10100 2
1%
#21840
0%
#21882
b100000101 3
b10101 2
1%
#21924
0%
#21966
b100000110 3
b10110 2
1%
#22008
0%
#22050
b100000111 3
b10111 2
1%
#22092
0%
#22134
b100001000 3
b11000 2
1%
#22176
0%
#22218
b100001001 3
b11001 2
1%
#22260
0%
#22302
b100001010 3
b11010 2
1%
#22344
0%
#22386
b100001011 3
b11011 2
1%
#22428
0%
#22470
b100001100 3
b11100 2
1%
#22512
0%
#22554
b100001101 3
b11101 2
1%
#22596
0%
#22638
b100001110 3
b11110 2
1%
#22680
0%
#22722
b100001111 3
b11111 2
1%
#22764
0%
#22806
b100010000 3
b100000 2
1%
#22848
0%
#22890
b100010001 3
b100001 2
1%
#22932
0%
#22974
b100010010 3
b100010 2
1%
#23016
0%
#23058
b100010011 3
b100011 2
1%
#23100
0%
#23142
b100010100 3
b100100 2
1%
#23184
0%
#23226
b100010101 3
b100101 2
1%
#23268
0%
#23310
b100010110 3
b100110 2
1%
#23352
0%
#23394
b100010111 3
b100111 2
1%
#23436
0%
#23478
b0xx 5
b0xxx 6
b0xxx 8
b100011000 3
10
b0 2
1%
#23520
0%
#23562
b100011001 3
b1 2
1%
#23604
0%
#23646
b100011010 3
b10 2
1%
#23688
0%
#23730
b100011011 3
b11 2
1%
#23772
0%
#23814
b100011100 3
b100 2
1%
#23856
0%
#23898
b100011101 3
b101 2
1%
#23940
0%
#23982
b100011110 3
b110 2
1%
#24000
b1010101 (
1&
#24024
0%
#24066
b100011111 3
b111 2
1%
#24108
0%
#24150
b100100000 3
b1000 2
1%
#24192
0%
#24234
b100100001 3
b1001 2
1%
#24276
0%
#24318
b100100010 3
b1010 2
1%
#24360
0%
#24402
b100100011 3
b1011 2
1%
#24444
0%
#24486
b100100100 3
b1100 2
1%
#24528
0%
#24570
b100100101 3
b1101 2
1%
#24612
0%
#24654
b100100110 3
b1110 2
1%
#24696
0%
#24738
b100100111 3
b1111 2
1%
#24780
0%
#24822
b100101000 3
b10000 2
1%
#24864
0%
#24906
b100101001 3
b10001 2
1%
#24948
0%
#24990
b100101010 3
b10010 2
1%
#25032
0%
#25074
b100101011 3
b10011 2
1%
#25116
0%
#25158
b100101100 3
b10100 2
1%
#25200
0%
#25242
b100101101 3
b10101 2
1%
#25284
0%
#25326
b100101110 3
b10110 2
1%
#25368
0%
#25410
b100101111 3
b10111 2
1%
#25452
0%
#25494
b100110000 3
b11000 2
1%
#25536
0%
#25578
b100110001 3
b11001 2
1%
#25620
0%
#25662
b100110010 3
b11010 2
1%
#25704
0%
#25746
b100110011 3
b11011 2
1%
#25788
0%
#25830
b100110100 3
b11100 2
1%
#25872
0%
#25914
b100110101 3
b11101 2
1%
#25956
0%
#25998
b100110110 3
b11110 2
1%
#26040
0%
#26082
b100110111 3
b11111 2
1%
#26124
0%
#26166
b100111000 3
b100000 2
1%
#26208
0%
#26250
b100111001 3
b100001 2
1%
#26292
0%
#26334
b100111010 3
b100010 2
1%
#26376
0%
#26418
b100111011 3
b100011 2
1%
#26460
0%
#26502
b100111100 3
b100100 2
1%
#26544
0%
#26586
b100111101 3
b100101 2
1%
#26628
0%
#26670
b100111110 3
b100110 2
1%
#26712
0%
#26754
b100111111 3
b100111 2
1%
#26796
0%
#26838
b101000000 3
00
b0 2
1%
#26880
0%
#26922
b101000001 3
b1 2
1%
#26964
0%
#27006
b101000010 3
b10 2
1%
#27048
0%
#27090
b101000011 3
b11 2
1%
#27132
0%
#27174
b101000100 3
b100 2
1%
#27216
0%
#27258
b101000101 3
b101 2
1%
#27300
0%
#27342
b101000110 3
b110 2
1%
#27384
0%
#27426
b101000111 3
b111 2
1%
#27468
0%
#27510
b101001000 3
b1000 2
1%
#27552
0%
#27594
b101001001 3
b1001 2
1%
#27636
0%
#27678
b101001010 3
b1010 2
1%
#27720
0%
#27762
b101001011 3
b1011 2
1%
#27804
0%
#27846
b101001100 3
b1100 2
1%
#27888
0%
#27930
b101001101 3
b1101 2
1%
#27972
0%
#28014
b101001110 3
b1110 2
1%
#28056
0%
#28098
b101001111 3
b1111 2
1%
#28140
0%
#28182
b101010000 3
b10000 2
1%
#28224
0%
#28266
b101010001 3
b10001 2
1%
#28308
0%
#28350
b101010010 3
b10010 2
1%
#28392
0%
#28434
b101010011 3
b10011 2
1%
#28476
0%
#28518
b101010100 3
b10100 2
1%
#28560
0%
#28602
b101010101 3
b10101 2
1%
#28644
0%
#28686
b101010110 3
b10110 2
1%
#28728
0%
#28770
b101010111 3
b10111 2
1%
#28812
0%
#28854
b101011000 3
b11000 2
1%
#28896
0%
#28938
b101011001 3
b11001 2
1%
#28980
0%
#29022
b101011010 3
b11010 2
1%
#29064
0%
#29106
b101011011 3
b11011 2
1%
#29148
0%
#29190
b101011100 3
b11100 2
1%
#29232
0%
#29274
b101011101 3
b11101 2
1%
#29316
0%
#29358
b101011110 3
b11110 2
1%
#29400
0%
#29442
b101011111 3
b11111 2
1%
#29484
0%
#29526
b101100000 3
b100000 2
1%
#29568
0%
#29610
b101100001 3
b100001 2
1%
#29652
0%
#29694
b101100010 3
b100010 2
1%
#29736
0%
#29778
b101100011 3
b100011 2
1%
#29820
0%
#29862
b101100100 3
b100100 2
1%
#29904
0%
#29946
b101100101 3
b100101 2
1%
#29988
0%
#30030
b101100110 3
b100110 2
1%
#30072
0%
#30114
b101100111 3
b100111 2
1%
#30156
0%
#30198
b0xxx 5
bx 6
b0xxxx 8
b1 >
b101101000 3
10
b0 2
1%
#30240
0%
#30282
b101101001 3
b1 2
1%
#30324
0%
#30366
b101101010 3
b10 2
1%
#30408
0%
#30450
b101101011 3
b11 2
1%
#30492
0%
#30534
b101101100 3
b100 2
1%
#30576
0%
#30618
b101101101 3
b101 2
1%
#30660
0%
#30702
b101101110 3
b110 2
1%
#30744
0%
#30786
b101101111 3
b111 2
1%
#30828
0%
#30870
b101110000 3
b1000 2
1%
#30912
0%
#30954
b101110001 3
b1001 2
1%
#30996
0%
#31038
b101110010 3
b1010 2
1%
#31080
0%
#31122
b101110011 3
b1011 2
1%
#31164
0%
#31206
b101110100 3
b1100 2
1%
#31248
0%
#31290
b101110101 3
b1101 2
1%
#31332
0%
#31374
b101110110 3
b1110 2
1%
#31416
0%
#31458
b101110111 3
b1111 2
1%
#31500
0%
#31542
b101111000 3
b10000 2
1%
#31584
0%
#31626
b101111001 3
b10001 2
1%
#31668
0%
#31710
b101111010 3
b10010 2
1%
#31752
0%
#31794
b101111011 3
b10011 2
1%
#31836
0%
#31878
b101111100 3
b10100 2
1%
#31920
0%
#31962
b101111101 3
b10101 2
1%
#32004
0%
#32046
b101111110 3
b10110 2
1%
#32088
0%
#32130
b101111111 3
b10111 2
1%
#32172
0%
#32214
b110000000 3
b11000 2
1%
#32256
0%
#32298
b110000001 3
b11001 2
1%
#32340
0%
#32382
b110000010 3
b11010 2
1%
#32424
0%
#32466
b110000011 3
b11011 2
1%
#32508
0%
#32550
b110000100 3
b11100 2
1%
#32592
0%
#32634
b110000101 3
b11101 2
1%
#32676
0%
#32718
b110000110 3
b11110 2
1%
#32760
0%
#32802
b110000111 3
b11111 2
1%
#32844
0%
#32886
b110001000 3
b100000 2
1%
#32928
0%
#32970
b110001001 3
b100001 2
1%
#33012
0%
#33054
b110001010 3
b100010 2
1%
#33096
0%
#33138
b110001011 3
b100011 2
1%
#33180
0%
#33222
b110001100 3
b100100 2
1%
#33264
0%
#33306
b110001101 3
b100101 2
1%
#33348
0%
#33390
b110001110 3
b100110 2
1%
#33432
0%
#33474
b110001111 3
b100111 2
1%
#33516
0%
#33558
b110010000 3
00
b0 2
1%
#33600
0%
#33642
b110010001 3
b1 2
1%
#33684
0%
#33726
b110010010 3
b10 2
1%
#33768
0%
#33810
b110010011 3
b11 2
1%
#33852
0%
#33894
b110010100 3
b100 2
1%
#33936
0%
#33978
b110010101 3
b101 2
1%
#34020
0%
#34062
b110010110 3
b110 2
1%
#34104
0%
#34146
b110010111 3
b111 2
1%
#34188
0%
#34230
b110011000 3
b1000 2
1%
#34272
0%
#34314
b110011001 3
b1001 2
1%
#34356
0%
#34398
b110011010 3
b1010 2
1%
#34440
0%
#34482
b110011011 3
b1011 2
1%
#34524
0%
#34566
b110011100 3
b1100 2
1%
#34608
0%
#34650
b110011101 3
b1101 2
1%
#34692
0%
#34734
b110011110 3
b1110 2
1%
#34776
0%
#34818
b110011111 3
b1111 2
1%
#34860
0%
#34902
b110100000 3
b10000 2
1%
#34944
0%
#34986
b110100001 3
b10001 2
1%
#35028
0%
#35070
b110100010 3
b10010 2
1%
#35112
0%
#35154
b110100011 3
b10011 2
1%
#35196
0%
#35238
b110100100 3
b10100 2
1%
#35280
0%
#35322
b110100101 3
b10101 2
1%
#35364
0%
#35406
b110100110 3
b10110 2
1%
#35448
0%
#35490
b110100111 3
b10111 2
1%
#35532
0%
#35574
b110101000 3
b11000 2
1%
#35616
0%
#35658
b110101001 3
b11001 2
1%
#35700
0%
#35742
b110101010 3
b11010 2
1%
#35784
0%
#35826
b110101011 3
b11011 2
1%
#35868
0%
#35910
b110101100 3
b11100 2
1%
#35952
0%
#35994
b110101101 3
b11101 2
1%
#36036
0%
#36078
b110101110 3
b11110 2
1%
#36120
0%
#36162
b110101111 3
b11111 2
1%
#36204
0%
#36246
b110110000 3
b100000 2
1%
#36288
0%
#36330
b110110001 3
b100001 2
1%
#36372
0%
#36414
b110110010 3
b100010 2
1%
#36456
0%
#36498
b110110011 3
b100011 2
1%
#36540
0%
#36582
b110110100 3
b100100 2
1%
#36624
0%
#36666
b110110101 3
b100101 2
1%
#36708
0%
#36750
b110110110 3
b100110 2
1%
#36792
0%
#36834
b110110111 3
b100111 2
1%
#36876
0%
#36918
bx 5
bx 8
b110111000 3
10
b0 2
1%
#36960
0%
#37002
b110111001 3
b1 2
1%
#37044
0%
#37086
b110111010 3
b10 2
1%
#37128
0%
#37170
b110111011 3
b11 2
1%
#37212
0%
#37254
b110111100 3
b100 2
1%
#37296
0%
#37338
b110111101 3
b101 2
1%
#37380
0%
#37422
b110111110 3
b110 2
1%
#37464
0%
#37506
b110111111 3
b111 2
1%
#37548
0%
#37590
b111000000 3
b1000 2
1%
#37632
0%
#37674
b111000001 3
b1001 2
1%
#37716
0%
#37758
b111000010 3
b1010 2
1%
#37800
0%
#37842
b111000011 3
b1011 2
1%
#37884
0%
#37926
b111000100 3
b1100 2
1%
#37968
0%
#38010
b111000101 3
b1101 2
1%
#38052
0%
#38094
b111000110 3
b1110 2
1%
#38136
0%
#38178
b111000111 3
b1111 2
1%
#38220
0%
#38262
b111001000 3
b10000 2
1%
#38304
0%
#38346
b111001001 3
b10001 2
1%
#38388
0%
#38430
b111001010 3
b10010 2
1%
#38472
0%
#38514
b111001011 3
b10011 2
1%
#38556
0%
#38598
b111001100 3
b10100 2
1%
#38640
0%
#38682
b111001101 3
b10101 2
1%
#38724
0%
#38766
b111001110 3
b10110 2
1%
#38808
0%
#38850
b111001111 3
b10111 2
1%
#38892
0%
#38934
b111010000 3
b11000 2
1%
#38976
0%
#39018
b111010001 3
b11001 2
1%
#39060
0%
#39102
b111010010 3
b11010 2
1%
#39144
0%
#39186
b111010011 3
b11011 2
1%
#39228
0%
#39270
b111010100 3
b11100 2
1%
#39312
0%
#39354
b111010101 3
b11101 2
1%
#39396
0%
#39438
b111010110 3
b11110 2
1%
#39480
0%
#39522
b111010111 3
b11111 2
1%
#39564
0%
#39606
b111011000 3
b100000 2
1%
#39648
0%
#39690
b111011001 3
b100001 2
1%
#39732
0%
#39774
b111011010 3
b100010 2
1%
#39816
0%
#39858
b111011011 3
b100011 2
1%
#39900
0%
#39942
b111011100 3
b100100 2
1%
#39984
0%
#40026
b111011101 3
b100101 2
1%
#40068
0%
#40110
b111011110 3
b100110 2
1%
#40152
0%
#40194
b111011111 3
b100111 2
1%
#40236
0%
#40278
b111100000 3
00
b0 2
1%
#40320
0%
#40362
b111100001 3
b1 2
1%
#40404
0%
#40446
b111100010 3
b10 2
1%
#40488
0%
#40530
b111100011 3
b11 2
1%
#40572
0%
#40614
b111100100 3
b100 2
1%
#40656
0%
#40698
b111100101 3
b101 2
1%
#40740
0%
#40782
b111100110 3
b110 2
1%
#40824
0%
#40866
b111100111 3
b111 2
1%
#40908
0%
#40950
b111101000 3
b1000 2
1%
#40992
0%
#41034
b111101001 3
b1001 2
1%
#41076
0%
#41118
b111101010 3
b1010 2
1%
#41160
0%
#41202
b111101011 3
b1011 2
1%
#41244
0%
#41286
b111101100 3
b1100 2
1%
#41328
0%
#41370
b111101101 3
b1101 2
1%
#41412
0%
#41454
b111101110 3
b1110 2
1%
#41496
0%
#41538
b111101111 3
b1111 2
1%
#41580
0%
#41622
b111110000 3
b10000 2
1%
#41664
0%
#41706
b111110001 3
b10001 2
1%
#41748
0%
#41790
b111110010 3
b10010 2
1%
#41832
0%
#41874
b111110011 3
b10011 2
1%
#41916
0%
#41958
b111110100 3
b10100 2
1%
#42000
0%
#42042
b111110101 3
b10101 2
1%
#42084
0%
#42126
b111110110 3
b10110 2
1%
#42168
0%
#42210
b111110111 3
b10111 2
1%
#42252
0%
#42294
b111111000 3
b11000 2
1%
#42336
0%
#42378
b111111001 3
b11001 2
1%
#42420
0%
#42462
b111111010 3
b11010 2
1%
#42504
0%
#42546
b111111011 3
b11011 2
1%
#42588
0%
#42630
b111111100 3
b11100 2
1%
#42672
0%
#42714
b111111101 3
b11101 2
1%
#42756
0%
#42798
b111111110 3
b11110 2
1%
#42840
0%
#42882
b111111111 3
b11111 2
1%
#42924
0%
