tests/3.vcd
$date
	Thu Jan 05 22:33:51 2023
$end
$version
	Icarus Verilog
$end
$timescale
	1ns
$end
$scope module test $end
$var wire 1 ! txDone_2 $end
$var wire 1 " txDone_1 $end
$var wire 1 # txBusy_2 $end
$var wire 1 $ txBusy_1 $end
$var wire 1 % rxErr_2 $end
$var wire 1 & rxErr_1 $end
$var wire 1 ' rxDone_2 $end
$var wire 1 ( rxDone_1 $end
$var wire 8 ) rxByte_2 [7:0] $end
$var wire 8 * rxByte_1 [7:0] $end
$var wire 1 + rxBusy_2 $end
$var wire 1 , rxBusy_1 $end
$var wire 1 - bus_wire_2_1 $end
$var wire 1 . bus_wire_1_2 $end
$var reg 1 / clk $end
$var reg 1 0 en_1 $end
$var reg 1 1 en_2 $end
$var reg 8 2 txByte_1 [7:0] $end
$var reg 8 3 txByte_2 [7:0] $end
$var reg 1 4 txStart_1 $end
$var reg 1 5 txStart_2 $end
$scope module uart1 $end
$var wire 1 / clk $end
$var wire 8 6 in [7:0] $end
$var wire 1 1 rxEn $end
$var wire 1 0 txEn $end
$var wire 1 4 txStart $end
$var wire 1 " txDone $end
$var wire 1 7 txClk $end
$var wire 1 $ txBusy $end
$var wire 1 . tx $end
$var wire 1 & rxErr $end
$var wire 1 ( rxDone $end
$var wire 1 8 rxClk $end
$var wire 1 , rxBusy $end
$var wire 1 - rx $end
$var wire 8 9 out [7:0] $end
$scope module generatorInst $end
$var wire 1 / clk $end
$var reg 1 8 rxClk $end
$var reg 6 : rx_counter [5:0] $end
$var reg 1 7 txClk $end
$var reg 10 ; tx_counter [9:0] $end
$upscope $end
$scope module rxInst $end
$var wire 1 8 clk $end
$var wire 1 1 en $end
$var wire 1 < in_sample $end
$var wire 4 = in_prior_hold_reg [3:0] $end
$var wire 4 > in_current_hold_reg [3:0] $end
$var wire 1 - in $end
$var reg 3 ? bit_index [2:0] $end
$var reg 1 , busy $end
$var reg 1 ( done $end
$var reg 1 & err $end
$var reg 5 @ in_hold_reg [4:0] $end
$var reg 2 A in_reg [1:0] $end
$var reg 8 B out [7:0] $end
$var reg 5 C out_hold_count [4:0] $end
$var reg 8 D received_data [7:0] $end
$var reg 4 E sample_count [3:0] $end
$var reg 3 F state [2:0] $end
$upscope $end
$scope module txInst $end
$var wire 1 7 clk $end
$var wire 1 0 en $end
$var wire 8 G in [7:0] $end
$var wire 1 4 start $end
$var reg 3 H bit_index [2:0] $end
$var reg 1 $ busy $end
$var reg 1 " done $end
$var reg 8 I in_data [7:0] $end
$var reg 1 . out $end
$var reg 3 J state [2:0] $end
$upscope $end
$upscope $end
$scope module uart2 $end
$var wire 1 / clk $end
$var wire 8 K in [7:0] $end
$var wire 1 . rx $end
$var wire 1 0 rxEn $end
$var wire 1 1 txEn $end
$var wire 1 5 txStart $end
$var wire 1 ! txDone $end
$var wire 1 L txClk $end
$var wire 1 # txBusy $end
$var wire 1 - tx $end
$var wire 1 % rxErr $end
$var wire 1 ' rxDone $end
$var wire 1 M rxClk $end
$var wire 1 + rxBusy $end
$var wire 8 N out [7:0] $end
$scope module generatorInst $end
$var wire 1 / clk $end
$var reg 1 M rxClk $end
$var reg 6 O rx_counter [5:0] $end
$var reg 1 L txClk $end
$var reg 10 P tx_counter [9:0] $end
$upscope $end
$scope module rxInst $end
$var wire 1 M clk $end
$var wire 1 0 en $end
$var wire 1 . in $end
$var wire 1 Q in_sample $end
$var wire 4 R in_prior_hold_reg [3:0] $end
$var wire 4 S in_current_hold_reg [3:0] $end
$var reg 3 T bit_index [2:0] $end
$var reg 1 + busy $end
$var reg 1 ' done $end
$var reg 1 % err $end
$var reg 5 U in_hold_reg [4:0] $end
$var reg 2 V in_reg [1:0] $end
$var reg 8 W out [7:0] $end
$var reg 5 X out_hold_count [4:0] $end
$var reg 8 Y received_data [7:0] $end
$var reg 4 Z sample_count [3:0] $end
$var reg 3 [ state [2:0] $end
$upscope $end
$scope module txInst $end
$var wire 1 L clk $end
$var wire 1 1 en $end
$var wire 8 \ in [7:0] $end
$var wire 1 5 start $end
$var reg 3 ] bit_index [2:0] $end
$var reg 1 # busy $end
$var reg 1 ! done $end
$var reg 8 ^ in_data [7:0] $end
$var reg 1 - out $end
$var reg 3 _ state [2:0] $end
$upscope $end
$upscope $end
$scope begin $unm_blk_67 $end
$var integer 32 ` t [31:0] $end
$upscope $end
$upscope $end
$enddefinitions $end
#0
$dumpvars
bx `
b0 _
b0 ^
b0 ]
bx \
b0 [
b0 Z
b0 Y
b0 X
bx W
b0 V
b0 U
b0 T
b0 S
b0 R
0Q
b0 P
b0 O
bx N
0M
0L
bx K
b0 J
b0 I
b0 H
bx G
b0 F
b0 E
b0 D
b0 C
bx B
b0 A
b0 @
b0 ?
b0 >
b0 =
0<
b0 ;
b0 :
bx 9
08
07
bx 6
x5
x4
bx 3
bx 2
x1
x0
0/
x.
x-
x,
x+
bx *
bx )
x(
x'
x&
x%
x$
x#
x"
x!
$end
#42
b1 ;
b1 :
b1 P
b1 O
1/
#84
0/
#126
b10 P
b10 O
b10 ;
b10 :
1/
#168
0/
#210
b11 ;
b11 :
b11 P
b11 O
1/
#252
0/
#294
b100 P
b100 O
b100 ;
b100 :
1/
#336
0/
#378
b101 ;
b101 :
b101 P
b101 O
1/
#420
0/
#462
b110 P
b110 O
b110 ;
b110 :
1/
#504
0/
#546
b111 ;
b111 :
b111 P
b111 O
1/
#588
0/
#630
b1000 P
b1000 O
b1000 ;
b1000 :
1/
#672
0/
#714
b1001 ;
b1001 :
b1001 P
b1001 O
1/
#756
0/
#798
b1010 P
b1010 O
b1010 ;
b1010 :
1/
#840
0/
#882
b1011 ;
b1011 :
b1011 P
b1011 O
1/
#924
0/
#966
b1100 P
b1100 O
b1100 ;
b1100 :
1/
#1008
0/
#1050
b1101 ;
b1101 :
b1101 P
b1101 O
1/
#1092
0/
#1134
b1110 P
b1110 O
b1110 ;
b1110 :
1/
#1176
0/
#1218
b1111 ;
b1111 :
b1111 P
b1111 O
1/
#1260
0/
#1302
b10000 P
b10000 O
b10000 ;
b10000 :
1/
#1344
0/
#1386
b10001 ;
b10001 :
b10001 P
b10001 O
1/
#1428
0/
#1470
b10010 P
b10010 O
b10010 ;
b10010 :
1/
#1512
0/
#1554
b10011 ;
b10011 :
b10011 P
b10011 O
1/
#1596
0/
#1638
b10100 P
b10100 O
b10100 ;
b10100 :
1/
#1680
0/
#1722
b10101 ;
b10101 :
b10101 P
b10101 O
1/
#1764
0/
#1806
b10110 P
b10110 O
b10110 ;
b10110 :
1/
#1848
0/
#1890
b10111 ;
b10111 :
b10111 P
b10111 O
1/
#1932
0/
#1974
b11000 P
b11000 O
b11000 ;
b11000 :
1/
#2016
0/
#2058
b11001 ;
b11001 :
b11001 P
b11001 O
1/
#2100
0/
#2142
b11010 P
b11010 O
b11010 ;
b11010 :
1/
#2184
0/
#2226
b11011 ;
b11011 :
b11011 P
b11011 O
1/
#2268
0/
#2310
b11100 P
b11100 O
b11100 ;
b11100 :
1/
#2352
0/
#2394
b11101 ;
b11101 :
b11101 P
b11101 O
1/
#2436
0/
#2478
b11110 P
b11110 O
b11110 ;
b11110 :
1/
#2520
0/
#2562
b11111 ;
b11111 :
b11111 P
b11111 O
1/
#2604
0/
#2646
b100000 P
b100000 O
b100000 ;
b100000 :
1/
#2688
0/
#2730
b100001 ;
b100001 :
b100001 P
b100001 O
1/
#2772
0/
#2814
b100010 P
b100010 O
b100010 ;
b100010 :
1/
#2856
0/
#2898
b100011 ;
b100011 :
b100011 P
b100011 O
1/
#2940
0/
#2982
b100100 P
b100100 O
b100100 ;
b100100 :
1/
#3024
0/
#3066
b100101 ;
b100101 :
b100101 P
b100101 O
1/
#3108
0/
#3150
b100110 P
b100110 O
b100110 ;
b100110 :
1/
#3192
0/
#3234
b100111 ;
b100111 :
b100111 P
b100111 O
1/
#3276
0/
#3318
b101000 P
b101000 O
b101000 ;
b101000 :
1/
#3360
0/
#3402
b101001 ;
b101001 :
b101001 P
b101001 O
1/
#3444
0/
#3486
b101010 P
b101010 O
b101010 ;
b101010 :
1/
#3528
0/
#3570
b101011 ;
b101011 :
b101011 P
b101011 O
1/
#3612
0/
#3654
b101100 P
b101100 O
b101100 ;
b101100 :
1/
#3696
0/
#3738
b101101 ;
b101101 :
b101101 P
b101101 O
1/
#3780
0/
#3822
b101110 P
b101110 O
b101110 ;
b101110 :
1/
#3864
0/
#3906
b101111 ;
b101111 :
b101111 P
b101111 O
1/
#3948
0/
#3990
b110000 P
b110000 O
b110000 ;
b110000 :
1/
#4032
0/
#4074
b0x A
b0 *
b0 9
b0 B
0&
0(
0,
b0x V
b0 )
b0 N
b0 W
0%
0'
0+
b110001 ;
18
b0 :
b110001 P
1M
b0 O
1/
#4116
0/
#4158
b110010 P
b1 O
b110010 ;
b1 :
1/
#4200
0/
#4242
b110011 ;
b10 :
b110011 P
b10 O
1/
#4284
0/
#4326
b110100 P
b11 O
b110100 ;
b11 :
1/
#4368
0/
#4410
b110101 ;
b100 :
b110101 P
b100 O
1/
#4452
0/
#4494
b110110 P
b101 O
b110110 ;
b101 :
1/
#4536
0/
#4578
b110111 ;
b110 :
b110111 P
b110 O
1/
#4620
0/
#4662
b111000 P
b111 O
b111000 ;
b111 :
1/
#4704
0/
#4746
b111001 ;
b1000 :
b111001 P
b1000 O
1/
#4788
0/
#4830
b111010 P
b1001 O
b111010 ;
b1001 :
1/
#4872
0/
#4914
b111011 ;
b1010 :
b111011 P
b1010 O
1/
#4956
0/
#4998
b111100 P
b1011 O
b111100 ;
b1011 :
1/
#5040
0/
#5082
b111101 ;
b1100 :
b111101 P
b1100 O
1/
#5124
0/
#5166
b111110 P
b1101 O
b111110 ;
b1101 :
1/
#5208
0/
#5250
b111111 ;
b1110 :
b111111 P
b1110 O
1/
#5292
0/
#5334
b1000000 P
b1111 O
b1000000 ;
b1111 :
1/
#5376
0/
#5418
b1000001 ;
b10000 :
b1000001 P
b10000 O
1/
#5460
0/
#5502
b1000010 P
b10001 O
b1000010 ;
b10001 :
1/
#5544
0/
#5586
b1000011 ;
b10010 :
b1000011 P
b10010 O
1/
#5628
0/
#5670
b1000100 P
b10011 O
b1000100 ;
b10011 :
1/
#5712
0/
#5754
b1000101 ;
b10100 :
b1000101 P
b10100 O
1/
#5796
0/
#5838
b1000110 P
b10101 O
b1000110 ;
b10101 :
1/
#5880
0/
#5922
b1000111 ;
b10110 :
b1000111 P
b10110 O
1/
#5964
0/
#6006
b1001000 P
b10111 O
b1001000 ;
b10111 :
1/
#6048
0/
#6090
b1001001 ;
b11000 :
b1001001 P
b11000 O
1/
#6132
0/
#6174
b1001010 P
b11001 O
b1001010 ;
b11001 :
1/
#6216
0/
#6258
b1001011 ;
b11010 :
b1001011 P
b11010 O
1/
#6300
0/
#6342
b1001100 P
b11011 O
b1001100 ;
b11011 :
1/
#6384
0/
#6426
b1001101 ;
b11100 :
b1001101 P
b11100 O
1/
#6468
0/
#6510
b1001110 P
b11101 O
b1001110 ;
b11101 :
1/
#6552
0/
#6594
b1001111 ;
b11110 :
b1001111 P
b11110 O
1/
#6636
0/
#6678
b1010000 P
b11111 O
b1010000 ;
b11111 :
1/
#6720
0/
#6762
b1010001 ;
b100000 :
b1010001 P
b100000 O
1/
#6804
0/
#6846
b1010010 P
b100001 O
b1010010 ;
b100001 :
1/
#6888
0/
#6930
b1010011 ;
b100010 :
b1010011 P
b100010 O
1/
#6972
0/
#7014
b1010100 P
b100011 O
b1010100 ;
b100011 :
1/
#7056
0/
#7098
b1010101 ;
b100100 :
b1010101 P
b100100 O
1/
#7140
0/
#7182
b1010110 P
b100101 O
b1010110 ;
b100101 :
1/
#7224
0/
#7266
b1010111 ;
b100110 :
b1010111 P
b100110 O
1/
#7308
0/
#7350
b1011000 P
b100111 O
b1011000 ;
b100111 :
1/
#7392
0/
#7434
b1011001 ;
b101000 :
b1011001 P
b101000 O
1/
#7476
0/
#7518
b1011010 P
b101001 O
b1011010 ;
b101001 :
1/
#7560
0/
#7602
b1011011 ;
b101010 :
b1011011 P
b101010 O
1/
#7644
0/
#7686
b1011100 P
b101011 O
b1011100 ;
b101011 :
1/
#7728
0/
#7770
b1011101 ;
b101100 :
b1011101 P
b101100 O
1/
#7812
0/
#7854
b1011110 P
b101101 O
b1011110 ;
b101101 :
1/
#7896
0/
#7938
b1011111 ;
b101110 :
b1011111 P
b101110 O
1/
#7980
0/
#8022
b1100000 P
b101111 O
b1100000 ;
b101111 :
1/
#8064
0/
#8106
b1100001 ;
b110000 :
b1100001 P
b110000 O
1/
#8148
0/
#8190
b1100010 P
0M
b0 O
b1100010 ;
08
b0 :
1/
#8232
0/
#8274
b1100011 ;
b1 :
b1100011 P
b1 O
1/
#8316
0/
#8358
b1100100 P
b10 O
b1100100 ;
b10 :
1/
#8400
0/
#8442
b1100101 ;
b11 :
b1100101 P
b11 O
1/
#8484
0/
#8526
b1100110 P
b100 O
b1100110 ;
b100 :
1/
#8568
0/
#8610
b1100111 ;
b101 :
b1100111 P
b101 O
1/
#8652
0/
#8694
b1101000 P
b110 O
b1101000 ;
b110 :
1/
#8736
0/
#8778
b1101001 ;
b111 :
b1101001 P
b111 O
1/
#8820
0/
#8862
b1101010 P
b1000 O
b1101010 ;
b1000 :
1/
#8904
0/
#8946
b1101011 ;
b1001 :
b1101011 P
b1001 O
1/
#8988
0/
#9030
b1101100 P
b1010 O
b1101100 ;
b1010 :
1/
#9072
0/
#9114
b1101101 ;
b1011 :
b1101101 P
b1011 O
1/
#9156
0/
#9198
b1101110 P
b1100 O
b1101110 ;
b1100 :
1/
#9240
0/
#9282
b1101111 ;
b1101 :
b1101111 P
b1101 O
1/
#9324
0/
#9366
b1110000 P
b1110 O
b1110000 ;
b1110 :
1/
#9408
0/
#9450
b1110001 ;
b1111 :
b1110001 P
b1111 O
1/
#9492
0/
#9534
b1110010 P
b10000 O
b1110010 ;
b10000 :
1/
#9576
0/
#9618
b1110011 ;
b10001 :
b1110011 P
b10001 O
1/
#9660
0/
#9702
b1110100 P
b10010 O
b1110100 ;
b10010 :
1/
#9744
0/
#9786
b1110101 ;
b10011 :
b1110101 P
b10011 O
1/
#9828
0/
#9870
b1110110 P
b10100 O
b1110110 ;
b10100 :
1/
#9912
0/
#9954
b1110111 ;
b10101 :
b1110111 P
b10101 O
1/
#9996
0/
#10038
b1111000 P
b10110 O
b1111000 ;
b10110 :
1/
#10080
0/
#10122
b1111001 ;
b10111 :
b1111001 P
b10111 O
1/
#10164
0/
#10206
b1111010 P
b11000 O
b1111010 ;
b11000 :
1/
#10248
0/
#10290
b1111011 ;
b11001 :
b1111011 P
b11001 O
1/
#10332
0/
#10374
b1111100 P
b11010 O
b1111100 ;
b11010 :
1/
#10416
0/
#10458
b1111101 ;
b11011 :
b1111101 P
b11011 O
1/
#10500
0/
#10542
b1111110 P
b11100 O
b1111110 ;
b11100 :
1/
#10584
0/
#10626
b1111111 ;
b11101 :
b1111111 P
b11101 O
1/
#10668
0/
#10710
b10000000 P
b11110 O
b10000000 ;
b11110 :
1/
#10752
0/
#10794
b10000001 ;
b11111 :
b10000001 P
b11111 O
1/
#10836
0/
#10878
b10000010 P
b100000 O
b10000010 ;
b100000 :
1/
#10920
0/
#10962
b10000011 ;
b100001 :
b10000011 P
b100001 O
1/
#11004
0/
#11046
b10000100 P
b100010 O
b10000100 ;
b100010 :
1/
#11088
0/
#11130
b10000101 ;
b100011 :
b10000101 P
b100011 O
1/
#11172
0/
#11214
b10000110 P
b100100 O
b10000110 ;
b100100 :
1/
#11256
0/
#11298
b10000111 ;
b100101 :
b10000111 P
b100101 O
1/
#11340
0/
#11382
b10001000 P
b100110 O
b10001000 ;
b100110 :
1/
#11424
0/
#11466
b10001001 ;
b100111 :
b10001001 P
b100111 O
1/
#11508
0/
#11550
b10001010 P
b101000 O
b10001010 ;
b101000 :
1/
#11592
0/
#11634
b10001011 ;
b101001 :
b10001011 P
b101001 O
1/
#11676
0/
#11718
b10001100 P
b101010 O
b10001100 ;
b101010 :
1/
#11760
0/
#11802
b10001101 ;
b101011 :
b10001101 P
b101011 O
1/
#11844
0/
#11886
b10001110 P
b101100 O
b10001110 ;
b101100 :
1/
#11928
0/
#11970
b10001111 ;
b101101 :
b10001111 P
b101101 O
1/
#12012
0/
#12054
b10010000 P
b101110 O
b10010000 ;
b101110 :
1/
#12096
0/
#12138
b10010001 ;
b101111 :
b10010001 P
b101111 O
1/
#12180
0/
#12222
b10010010 P
b110000 O
b10010010 ;
b110000 :
1/
#12264
0/
#12306
b0x >
x<
b0x S
xQ
b0x @
bx A
b0x U
bx V
b10010011 ;
18
b0 :
b10010011 P
1M
b0 O
1/
#12348
0/
#12390
b10010100 P
b1 O
b10010100 ;
b1 :
1/
#12432
0/
#12474
b10010101 ;
b10 :
b10010101 P
b10 O
1/
#12516
0/
#12558
b10010110 P
b11 O
b10010110 ;
b11 :
1/
#12600
0/
#12642
b10010111 ;
b100 :
b10010111 P
b100 O
1/
#12684
0/
#12726
b10011000 P
b101 O
b10011000 ;
b101 :
1/
#12768
0/
#12810
b10011001 ;
b110 :
b10011001 P
b110 O
1/
#12852
0/
#12894
b10011010 P
b111 O
b10011010 ;
b111 :
1/
#12936
0/
#12978
b10011011 ;
b1000 :
b10011011 P
b1000 O
1/
#13020
0/
#13062
b10011100 P
b1001 O
b10011100 ;
b1001 :
1/
#13104
0/
#13146
b10011101 ;
b1010 :
b10011101 P
b1010 O
1/
#13188
0/
#13230
b10011110 P
b1011 O
b10011110 ;
b1011 :
1/
#13272
0/
#13314
b10011111 ;
b1100 :
b10011111 P
b1100 O
1/
#13356
0/
#13398
b10100000 P
b1101 O
b10100000 ;
b1101 :
1/
#13440
0/
#13482
b10100001 ;
b1110 :
b10100001 P
b1110 O
1/
#13524
0/
#13566
b10100010 P
b1111 O
b10100010 ;
b1111 :
1/
#13608
0/
#13650
b10100011 ;
b10000 :
b10100011 P
b10000 O
1/
#13692
0/
#13734
b10100100 P
b10001 O
b10100100 ;
b10001 :
1/
#13776
0/
#13818
b10100101 ;
b10010 :
b10100101 P
b10010 O
1/
#13860
0/
#13902
b10100110 P
b10011 O
b10100110 ;
b10011 :
1/
#13944
0/
#13986
b10100111 ;
b10100 :
b10100111 P
b10100 O
1/
#14028
0/
#14070
b10101000 P
b10101 O
b10101000 ;
b10101 :
1/
#14112
0/
#14154
b10101001 ;
b10110 :
b10101001 P
b10110 O
1/
#14196
0/
#14238
b10101010 P
b10111 O
b10101010 ;
b10111 :
1/
#14280
0/
#14322
b10101011 ;
b11000 :
b10101011 P
b11000 O
1/
#14364
0/
#14406
b10101100 P
b11001 O
b10101100 ;
b11001 :
1/
#14448
0/
#14490
b10101101 ;
b11010 :
b10101101 P
b11010 O
1/
#14532
0/
#14574
b10101110 P
b11011 O
b10101110 ;
b11011 :
1/
#14616
0/
#14658
b10101111 ;
b11100 :
b10101111 P
b11100 O
1/
#14700
0/
#14742
b10110000 P
b11101 O
b10110000 ;
b11101 :
1/
#14784
0/
#14826
b10110001 ;
b11110 :
b10110001 P
b11110 O
1/
#14868
0/
#14910
b10110010 P
b11111 O
b10110010 ;
b11111 :
1/
#14952
0/
#14994
b10110011 ;
b100000 :
b10110011 P
b100000 O
1/
#15036
0/
#15078
b10110100 P
b100001 O
b10110100 ;
b100001 :
1/
#15120
0/
#15162
b10110101 ;
b100010 :
b10110101 P
b100010 O
1/
#15204
0/
#15246
b10110110 P
b100011 O
b10110110 ;
b100011 :
1/
#15288
0/
#15330
b10110111 ;
b100100 :
b10110111 P
b100100 O
1/
#15372
0/
#15414
b10111000 P
b100101 O
b10111000 ;
b100101 :
1/
#15456
0/
#15498
b10111001 ;
b100110 :
b10111001 P
b100110 O
1/
#15540
0/
#15582
b10111010 P
b100111 O
b10111010 ;
b100111 :
1/
#15624
0/
#15666
b10111011 ;
b101000 :
b10111011 P
b101000 O
1/
#15708
0/
#15750
b10111100 P
b101001 O
b10111100 ;
b101001 :
1/
#15792
0/
#15834
b10111101 ;
b101010 :
b10111101 P
b101010 O
1/
#15876
0/
#15918
b10111110 P
b101011 O
b10111110 ;
b101011 :
1/
#15960
0/
#16002
b10111111 ;
b101100 :
b10111111 P
b101100 O
1/
#16044
0/
#16086
b11000000 P
b101101 O
b11000000 ;
b101101 :
1/
#16128
0/
#16170
b11000001 ;
b101110 :
b11000001 P
b101110 O
1/
#16212
0/
#16254
b11000010 P
b101111 O
b11000010 ;
b101111 :
1/
#16296
0/
#16338
b11000011 ;
b110000 :
b11000011 P
b110000 O
1/
#16380
0/
#16422
b11000100 P
0M
b0 O
b11000100 ;
08
b0 :
1/
#16464
0/
#16506
b11000101 ;
b1 :
b11000101 P
b1 O
1/
#16548
0/
#16590
b11000110 P
b10 O
b11000110 ;
b10 :
1/
#16632
0/
#16674
b11000111 ;
b11 :
b11000111 P
b11 O
1/
#16716
0/
#16758
b11001000 P
b100 O
b11001000 ;
b100 :
1/
#16800
0/
#16842
b11001001 ;
b101 :
b11001001 P
b101 O
1/
#16884
0/
#16926
b11001010 P
b110 O
b11001010 ;
b110 :
1/
#16968
0/
#17010
b11001011 ;
b111 :
b11001011 P
b111 O
1/
#17052
0/
#17094
b11001100 P
b1000 O
b11001100 ;
b1000 :
1/
#17136
0/
#17178
b11001101 ;
b1001 :
b11001101 P
b1001 O
1/
#17220
0/
#17262
b11001110 P
b1010 O
b11001110 ;
b1010 :
1/
#17304
0/
#17346
b11001111 ;
b1011 :
b11001111 P
b1011 O
1/
#17388
0/
#17430
b11010000 P
b1100 O
b11010000 ;
b1100 :
1/
#17472
0/
#17514
b11010001 ;
b1101 :
b11010001 P
b1101 O
1/
#17556
0/
#17598
b11010010 P
b1110 O
b11010010 ;
b1110 :
1/
#17640
0/
#17682
b11010011 ;
b1111 :
b11010011 P
b1111 O
1/
#17724
0/
#17766
b11010100 P
b10000 O
b11010100 ;
b10000 :
1/
#17808
0/
#17850
b11010101 ;
b10001 :
b11010101 P
b10001 O
1/
#17892
0/
#17934
b11010110 P
b10010 O
b11010110 ;
b10010 :
1/
#17976
0/
#18018
b11010111 ;
b10011 :
b11010111 P
b10011 O
1/
#18060
0/
#18102
b11011000 P
b10100 O
b11011000 ;
b10100 :
1/
#18144
0/
#18186
b11011001 ;
b10101 :
b11011001 P
b10101 O
1/
#18228
0/
#18270
b11011010 P
b10110 O
b11011010 ;
b10110 :
1/
#18312
0/
#18354
b11011011 ;
b10111 :
b11011011 P
b10111 O
1/
#18396
0/
#18438
b11011100 P
b11000 O
b11011100 ;
b11000 :
1/
#18480
0/
#18522
b11011101 ;
b11001 :
b11011101 P
b11001 O
1/
#18564
0/
#18606
b11011110 P
b11010 O
b11011110 ;
b11010 :
1/
#18648
0/
#18690
b11011111 ;
b11011 :
b11011111 P
b11011 O
1/
#18732
0/
#18774
b11100000 P
b11100 O
b11100000 ;
b11100 :
1/
#18816
0/
#18858
b11100001 ;
b11101 :
b11100001 P
b11101 O
1/
#18900
0/
#18942
b11100010 P
b11110 O
b11100010 ;
b11110 :
1/
#18984
0/
#19026
b11100011 ;
b11111 :
b11100011 P
b11111 O
1/
#19068
0/
#19110
b11100100 P
b100000 O
b11100100 ;
b100000 :
1/
#19152
0/
#19194
b11100101 ;
b100001 :
b11100101 P
b100001 O
1/
#19236
0/
#19278
b11100110 P
b100010 O
b11100110 ;
b100010 :
1/
#19320
0/
#19362
b11100111 ;
b100011 :
b11100111 P
b100011 O
1/
#19404
0/
#19446
b11101000 P
b100100 O
b11101000 ;
b100100 :
1/
#19488
0/
#19530
b11101001 ;
b100101 :
b11101001 P
b100101 O
1/
#19572
0/
#19614
b11101010 P
b100110 O
b11101010 ;
b100110 :
1/
#19656
0/
#19698
b11101011 ;
b100111 :
b11101011 P
b100111 O
1/
#19740
0/
#19782
b11101100 P
b101000 O
b11101100 ;
b101000 :
1/
#19824
0/
#19866
b11101101 ;
b101001 :
b11101101 P
b101001 O
1/
#19908
0/
#19950
b11101110 P
b101010 O
b11101110 ;
b101010 :
1/
#19992
0/
#20034
b11101111 ;
b101011 :
b11101111 P
b101011 O
1/
#20076
0/
#20118
b11110000 P
b101100 O
b11110000 ;
b101100 :
1/
#20160
0/
#20202
b11110001 ;
b101101 :
b11110001 P
b101101 O
1/
#20244
0/
#20286
b11110010 P
b101110 O
b11110010 ;
b101110 :
1/
#20328
0/
#20370
b11110011 ;
b101111 :
b11110011 P
b101111 O
1/
#20412
0/
#20454
b11110100 P
b110000 O
b11110100 ;
b110000 :
1/
#20496
0/
#20538
b0x =
b0xx >
b0x R
b0xx S
b0xx @
b0xx U
b11110101 ;
18
b0 :
b11110101 P
1M
b0 O
1/
#20580
0/
#20622
b11110110 P
b1 O
b11110110 ;
b1 :
1/
#20664
0/
#20706
b11110111 ;
b10 :
b11110111 P
b10 O
1/
#20748
0/
#20790
b11111000 P
b11 O
b11111000 ;
b11 :
1/
#20832
0/
#20874
b11111001 ;
b100 :
b11111001 P
b100 O
1/
#20916
0/
#20958
b11111010 P
b101 O
b11111010 ;
b101 :
1/
#21000
0/
#21042
b11111011 ;
b110 :
b11111011 P
b110 O
1/
#21084
0/
#21126
b11111100 P
b111 O
b11111100 ;
b111 :
1/
#21168
0/
#21210
b11111101 ;
b1000 :
b11111101 P
b1000 O
1/
#21252
0/
#21294
b11111110 P
b1001 O
b11111110 ;
b1001 :
1/
#21336
0/
#21378
b11111111 ;
b1010 :
b11111111 P
b1010 O
1/
#21420
0/
#21462
b100000000 P
b1011 O
b100000000 ;
b1011 :
1/
#21504
0/
#21546
b100000001 ;
b1100 :
b100000001 P
b1100 O
1/
#21588
0/
#21630
b100000010 P
b1101 O
b100000010 ;
b1101 :
1/
#21672
0/
#21714
b100000011 ;
b1110 :
b100000011 P
b1110 O
1/
#21756
0/
#21798
b100000100 P
b1111 O
b100000100 ;
b1111 :
1/
#21840
0/
#21882
b100000101 ;
b10000 :
b100000101 P
b10000 O
1/
#21924
0/
#21966
b100000110 P
b10001 O
b100000110 ;
b10001 :
1/
#22008
0/
#22050
b100000111 ;
b10010 :
b100000111 P
b10010 O
1/
#22092
0/
#22134
b100001000 P
b10011 O
b100001000 ;
b10011 :
1/
#22176
0/
#22218
b100001001 ;
b10100 :
b100001001 P
b10100 O
1/
#22260
0/
#22302
b100001010 P
b10101 O
b100001010 ;
b10101 :
1/
#22344
0/
#22386
b100001011 ;
b10110 :
b100001011 P
b10110 O
1/
#22428
0/
#22470
b100001100 P
b10111 O
b100001100 ;
b10111 :
1/
#22512
0/
#22554
b100001101 ;
b11000 :
b100001101 P
b11000 O
1/
#22596
0/
#22638
b100001110 P
b11001 O
b100001110 ;
b11001 :
1/
#22680
0/
#22722
b100001111 ;
b11010 :
b100001111 P
b11010 O
1/
#22764
0/
#22806
b100010000 P
b11011 O
b100010000 ;
b11011 :
1/
#22848
0/
#22890
b100010001 ;
b11100 :
b100010001 P
b11100 O
1/
#22932
0/
#22974
b100010010 P
b11101 O
b100010010 ;
b11101 :
1/
#23016
0/
#23058
b100010011 ;
b11110 :
b100010011 P
b11110 O
1/
#23100
0/
#23142
b100010100 P
b11111 O
b100010100 ;
b11111 :
1/
#23184
0/
#23226
b100010101 ;
b100000 :
b100010101 P
b100000 O
1/
#23268
0/
#23310
b100010110 P
b100001 O
b100010110 ;
b100001 :
1/
#23352
0/
#23394
b100010111 ;
b100010 :
b100010111 P
b100010 O
1/
#23436
0/
#23478
b100011000 P
b100011 O
b100011000 ;
b100011 :
1/
#23520
0/
#23562
b100011001 ;
b100100 :
b100011001 P
b100100 O
1/
#23604
0/
#23646
b100011010 P
b100101 O
b100011010 ;
b100101 :
1/
#23688
0/
#23730
b100011011 ;
b100110 :
b100011011 P
b100110 O
1/
#23772
0/
#23814
b100011100 P
b100111 O
b100011100 ;
b100111 :
1/
#23856
0/
#23898
b100011101 ;
b101000 :
b100011101 P
b101000 O
1/
#23940
0/
#23982
b100011110 P
b101001 O
b100011110 ;
b101001 :
1/
#24024
0/
#24066
b100011111 ;
b101010 :
b100011111 P
b101010 O
1/
#24108
0/
#24150
b100100000 P
b101011 O
b100100000 ;
b101011 :
1/
#24192
0/
#24234
b100100001 ;
b101100 :
b100100001 P
b101100 O
1/
#24276
0/
#24318
b100100010 P
b101101 O
b100100010 ;
b101101 :
1/
#24360
0/
#24402
b100100011 ;
b101110 :
b100100011 P
b101110 O
1/
#24444
0/
#24486
b100100100 P
b101111 O
b100100100 ;
b101111 :
1/
#24528
0/
#24570
b100100101 ;
b110000 :
b100100101 P
b110000 O
1/
#24612
0/
#24654
b100100110 P
0M
b0 O
b100100110 ;
08
b0 :
1/
#24696
0/
#24738
b100100111 ;
b1 :
b100100111 P
b1 O
1/
#24780
0/
#24822
b100101000 P
b10 O
b100101000 ;
b10 :
1/
#24864
0/
#24906
b100101001 ;
b11 :
b100101001 P
b11 O
1/
#24948
0/
#24990
b100101010 P
b100 O
b100101010 ;
b100 :
1/
#25032
0/
#25074
b100101011 ;
b101 :
b100101011 P
b101 O
1/
#25116
0/
#25158
b100101100 P
b110 O
b100101100 ;
b110 :
1/
#25200
0/
#25242
b100101101 ;
b111 :
b100101101 P
b111 O
1/
#25284
0/
#25326
b100101110 P
b1000 O
b100101110 ;
b1000 :
1/
#25368
0/
#25410
b100101111 ;
b1001 :
b100101111 P
b1001 O
1/
#25452
0/
#25494
b100110000 P
b1010 O
b100110000 ;
b1010 :
1/
#25536
0/
#25578
b100110001 ;
b1011 :
b100110001 P
b1011 O
1/
#25620
0/
#25662
b100110010 P
b1100 O
b100110010 ;
b1100 :
1/
#25704
0/
#25746
b100110011 ;
b1101 :
b100110011 P
b1101 O
1/
#25788
0/
#25830
b100110100 P
b1110 O
b100110100 ;
b1110 :
1/
